<?xml version="1.0" encoding="utf-8"?>
<!-- Generator: Adobe Illustrator 18.0.0, SVG Export Plug-In . SVG Version: 6.00 Build 0)  -->
<!DOCTYPE svg PUBLIC "-//W3C//DTD SVG 1.1//EN" "http://www.w3.org/Graphics/SVG/1.1/DTD/svg11.dtd">
<svg version="1.1" id="SvgjsSvg1014" xmlns:svgjs="http://svgjs.com/svgjs"
	 xmlns="http://www.w3.org/2000/svg" xmlns:xlink="http://www.w3.org/1999/xlink" x="0px" y="0px" viewBox="0 0 24 24"
	 enable-background="new 0 0 24 24" xml:space="preserve">
<title>Shape 1</title>
<desc>Created with Avocode.</desc>
<path id="SvgjsPath1016" d="M21.3,0v7.4h-2v-4h-7.4v-2H4.2v5.9H2.5V0H0v24h2.5v-4.5h18.8V24H24V0H21.3z M21.3,17.3h-1.5v-5.9h-7.7v2
	H4.7v4H2.5V9.6h18.8V17.3z M17.3,15.1v-3H19v5.2h-6.2v-5.2h1.7v3H17.3z M5,2.2h1.7v3h2.7v-3h1.7v5.2H5V2.2z M23.3,23.3H22V0.7h1.2
	V23.3z M0.7,23.3V0.7h1v22.5H0.7z M11.9,4.2h6.7v3.2h-6.7V4.2z M5.4,17.3v-3.2h6.7v3.2H5.4z M21.3,18.8H2.5v-0.7h18.8V18.8z
	 M21.3,8.9H2.5V8.2h18.8V8.9z M18,6V5h-5v1H18z M15.3,14.4v-2.2h1.2v2.2H15.3z M7.4,2.2h1.2v2.2H7.4V2.2z M11,16v-1h-1v1H11z M9,16
	v-1H7v1H9z"/>
</svg>
