<?xml version="1.0" encoding="utf-8"?>
<!-- Generator: Adobe Illustrator 18.0.0, SVG Export Plug-In . SVG Version: 6.00 Build 0)  -->
<!DOCTYPE svg PUBLIC "-//W3C//DTD SVG 1.1//EN" "http://www.w3.org/Graphics/SVG/1.1/DTD/svg11.dtd">
<svg version="1.1" id="SvgjsSvg1023" xmlns:svgjs="http://svgjs.com/svgjs"
	 xmlns="http://www.w3.org/2000/svg" xmlns:xlink="http://www.w3.org/1999/xlink" x="0px" y="0px" viewBox="0 0 22 20"
	 enable-background="new 0 0 22 20" xml:space="preserve">
<title>Forma 1</title>
<desc>Created with Avocode.</desc>
<path id="SvgjsPath1025" d="M2,1.8c1.3-1.2,3.3-1.2,4.6,0l13.1,12.4c0,0,0,0,0,0c0,0,0,0,0,0c0,0,0,0.1,0,0.1c0,0,0,0,0,0
	c0,0,0,0,0,0l1.3,5.1c0,0,0,0.1,0,0.1c0,0,0,0,0,0c0,0,0,0.1,0,0.1c0,0,0,0,0,0c0,0,0,0.1-0.1,0.1c0,0-0.1,0-0.1,0.1s-0.1,0-0.1,0
	c0,0-0.1,0-0.1,0l-5.4-1.2c0,0,0,0,0,0c0,0,0,0,0,0c0,0,0,0-0.1-0.1c0,0,0,0,0,0c0,0,0,0,0,0L2,6.2C0.7,5,0.7,3,2,1.8z M14.7,16.3
	L6.6,8.6c-0.1-0.1-0.1-0.3,0-0.5C6.7,8,6.9,8,7.1,8.1l8.1,7.7l1.7,0.2l-0.2-1.7L8.6,6.7c-0.1-0.1-0.1-0.3,0-0.5C8.7,6,9,6,9.1,6.2
	l8.1,7.7l1.2,0.1l-10-9.5L4.8,7.9l10,9.5L14.7,16.3z M19.2,18.2c0.1-0.1,0.4-0.1,0.5,0l0.3,0.3l-0.9-3.7l-1.6-0.2l0.2,1.8
	c0,0,0,0,0,0s0,0,0,0c0,0,0,0,0,0c0,0,0,0,0,0.1c0,0,0,0,0,0.1c0,0,0,0,0,0c0,0,0,0-0.1,0.1c0,0,0,0,0,0c0,0,0,0-0.1,0c0,0,0,0,0,0
	c0,0,0,0,0,0h0c0,0,0,0,0,0l-1.9-0.2l0.2,1.5l3.9,0.9l-0.3-0.3C19.1,18.6,19.1,18.3,19.2,18.2z M4.3,7.4L7.8,4L7.3,3.5L3.7,6.9
	L4.3,7.4z M2.5,2.3c-0.9,0.9-1,2.2-0.2,3.1l3.5-3.4C4.8,1.3,3.4,1.4,2.5,2.3z M3.2,6.4L6.8,3L6.3,2.5L2.7,5.9L3.2,6.4z"/>
</svg>
